mux_tb_data_dump.vcd
$date
	Mon Feb 16 19:30:14 2026
$end
$version
	Icarus Verilog
$end
$timescale
	1ps
$end
$scope module mux_tb $end
$var wire 1 ! out $end
$var reg 1 " a $end
$var reg 1 # b $end
$var reg 1 $ c $end
$var reg 1 % d $end
$var reg 1 & s0 $end
$var reg 1 ' s1 $end
$var reg 1 ( s2 $end
$var integer 32 ) i [31:0] $end
$scope module uut $end
$var wire 1 " a $end
$var wire 1 # b $end
$var wire 1 $ c $end
$var wire 1 % d $end
$var wire 1 & s0 $end
$var wire 1 ' s1 $end
$var wire 1 ( s2 $end
$var wire 1 * out2 $end
$var wire 1 + out1 $end
$var wire 1 ! out $end
$scope module HA1 $end
$var wire 1 " a $end
$var wire 1 # b $end
$var wire 1 & s $end
$var wire 1 + out $end
$upscope $end
$scope module HA2 $end
$var wire 1 $ a $end
$var wire 1 % b $end
$var wire 1 ' s $end
$var wire 1 * out $end
$upscope $end
$scope module HA3 $end
$var wire 1 + a $end
$var wire 1 * b $end
$var wire 1 ( s $end
$var wire 1 ! out $end
$upscope $end
$upscope $end
$upscope $end
$enddefinitions $end
$comment Show the parameter values. $end
$dumpall
$end
#0
$dumpvars
0+
0*
b0 )
0(
0'
0&
0%
0$
0#
0"
0!
$end
#10000
1&
b1 )
#20000
1'
0&
b10 )
#30000
1&
b11 )
#40000
1(
0'
0&
b100 )
#50000
1&
b101 )
#60000
1'
0&
b110 )
#70000
1&
b111 )
#80000
1!
1*
1%
0(
0'
0&
b1000 )
#90000
1&
b1001 )
#100000
0!
0*
1'
0&
b1010 )
#110000
1&
b1011 )
#120000
1*
1(
0'
0&
b1100 )
#130000
1&
b1101 )
#140000
0*
1'
0&
b1110 )
#150000
1&
b1111 )
#160000
1$
0%
0(
0'
0&
b10000 )
#170000
1&
b10001 )
#180000
1!
1*
1'
0&
b10010 )
#190000
1&
b10011 )
#200000
0!
0*
1(
0'
0&
b10100 )
#210000
1&
b10101 )
#220000
1*
1'
0&
b10110 )
#230000
1&
b10111 )
#240000
1!
1%
0(
0'
0&
b11000 )
#250000
1&
b11001 )
#260000
1'
0&
b11010 )
#270000
1&
b11011 )
#280000
0!
1(
0'
0&
b11100 )
#290000
1&
b11101 )
#300000
1'
0&
b11110 )
#310000
1&
b11111 )
#320000
0*
1+
1#
0$
0%
0(
0'
0&
b100000 )
#330000
0+
1&
b100001 )
#340000
1+
1'
0&
b100010 )
#350000
0+
1&
b100011 )
#360000
1!
1+
1(
0'
0&
b100100 )
#370000
0!
0+
1&
b100101 )
#380000
1!
1+
1'
0&
b100110 )
#390000
0!
0+
1&
b100111 )
#400000
1!
1*
1+
1%
0(
0'
0&
b101000 )
#410000
0+
1&
b101001 )
#420000
0!
0*
1+
1'
0&
b101010 )
#430000
0+
1&
b101011 )
#440000
1!
1*
1+
1(
0'
0&
b101100 )
#450000
0!
0+
1&
b101101 )
#460000
1!
0*
1+
1'
0&
b101110 )
#470000
0!
0+
1&
b101111 )
#480000
1+
1$
0%
0(
0'
0&
b110000 )
#490000
0+
1&
b110001 )
#500000
1!
1*
1+
1'
0&
b110010 )
#510000
0+
1&
b110011 )
#520000
0*
1+
1(
0'
0&
b110100 )
#530000
0!
0+
1&
b110101 )
#540000
1!
1*
1+
1'
0&
b110110 )
#550000
0!
0+
1&
b110111 )
#560000
1!
1+
1%
0(
0'
0&
b111000 )
#570000
0+
1&
b111001 )
#580000
1+
1'
0&
b111010 )
#590000
0+
1&
b111011 )
#600000
1+
1(
0'
0&
b111100 )
#610000
0!
0+
1&
b111101 )
#620000
1!
1+
1'
0&
b111110 )
#630000
0!
0+
1&
b111111 )
#640000
0*
1"
0#
0$
0%
0(
0'
0&
b1000000 )
#650000
1+
1&
b1000001 )
#660000
0+
1'
0&
b1000010 )
#670000
1+
1&
b1000011 )
#680000
0+
1(
0'
0&
b1000100 )
#690000
1!
1+
1&
b1000101 )
#700000
0!
0+
1'
0&
b1000110 )
#710000
1!
1+
1&
b1000111 )
#720000
1*
0+
1%
0(
0'
0&
b1001000 )
#730000
1+
1&
b1001001 )
#740000
0!
0*
0+
1'
0&
b1001010 )
#750000
1+
1&
b1001011 )
#760000
1*
0+
1(
0'
0&
b1001100 )
#770000
1!
1+
1&
b1001101 )
#780000
0!
0*
0+
1'
0&
b1001110 )
#790000
1!
1+
1&
b1001111 )
#800000
0!
0+
1$
0%
0(
0'
0&
b1010000 )
#810000
1+
1&
b1010001 )
#820000
1!
1*
0+
1'
0&
b1010010 )
#830000
1+
1&
b1010011 )
#840000
0!
0*
0+
1(
0'
0&
b1010100 )
#850000
1!
1+
1&
b1010101 )
#860000
0!
1*
0+
1'
0&
b1010110 )
#870000
1!
1+
1&
b1010111 )
#880000
0+
1%
0(
0'
0&
b1011000 )
#890000
1+
1&
b1011001 )
#900000
0+
1'
0&
b1011010 )
#910000
1+
1&
b1011011 )
#920000
0!
0+
1(
0'
0&
b1011100 )
#930000
1!
1+
1&
b1011101 )
#940000
0!
0+
1'
0&
b1011110 )
#950000
1!
1+
1&
b1011111 )
#960000
0!
0*
1#
0$
0%
0(
0'
0&
b1100000 )
#970000
1&
b1100001 )
#980000
1'
0&
b1100010 )
#990000
1&
b1100011 )
#1000000
1!
1(
0'
0&
b1100100 )
#1010000
1&
b1100101 )
#1020000
1'
0&
b1100110 )
#1030000
1&
b1100111 )
#1040000
1*
1%
0(
0'
0&
b1101000 )
#1050000
1&
b1101001 )
#1060000
0!
0*
1'
0&
b1101010 )
#1070000
1&
b1101011 )
#1080000
1!
1*
1(
0'
0&
b1101100 )
#1090000
1&
b1101101 )
#1100000
0*
1'
0&
b1101110 )
#1110000
1&
b1101111 )
#1120000
0!
1$
0%
0(
0'
0&
b1110000 )
#1130000
1&
b1110001 )
#1140000
1!
1*
1'
0&
b1110010 )
#1150000
1&
b1110011 )
#1160000
0*
1(
0'
0&
b1110100 )
#1170000
1&
b1110101 )
#1180000
1*
1'
0&
b1110110 )
#1190000
1&
b1110111 )
#1200000
1%
0(
0'
0&
b1111000 )
#1210000
1&
b1111001 )
#1220000
1'
0&
b1111010 )
#1230000
1&
b1111011 )
#1240000
1(
0'
0&
b1111100 )
#1250000
1&
b1111101 )
#1260000
1'
0&
b1111110 )
#1270000
1&
b1111111 )
#1280000
b10000000 )
